
namespace = gnomish

country_event = {
	id = gnomish.1
	title = gnomish.1.t
	desc = gnomish.1.d
	picture = TRADEGOODS_eventPicture
	
	is_triggered_only = yes
	
	trigger = {
		always = yes
	}
	
	# Accept
	option = {
		name = gnomish.1.a
		ai_chance = {
			factor = 100 
			
			modifier = {
				factor = 1.3
				
				historical_friend_with = FROM
			}
			
			modifier = {
				factor = 1.1
				
				has_opinion = {
					who = FROM
					value = 100
				}
			}
			
			modifier = {
				factor = 1.15
				
				has_opinion = {
					who = FROM
					value = 150
				}
			}
			
			modifier = {
				factor = 1.2
				
				has_opinion = {
					who = FROM
					value = 200
				}
			}
			
			modifier = {
				factor = 1.15
				
				alliance_with = FROM
			}
			
			modifier = {
				factor = 1.15
				
				NOT = { army_size = FROM }
			}
		}
		A79 = { country_event = { id = gnomish.2 days = 30 random = 10 } }
	}
	# Refuse
	option = {
		name = gnomish.1.b
		ai_chance = {
			factor = 100 
			
			modifier = {
				factor = 2.5
				
				historical_rival_with = FROM
			}
			
			modifier = {
				factor = 1.1
				
				NOT = {
					has_opinion = {
						who = FROM
						value = 100
					}
				}
			}
			
			modifier = {
				factor = 1.15
				
				NOT = {
					has_opinion = {
						who = FROM
						value = 50
					}
				}
			}
			
			modifier = {
				factor = 1.5
				
				NOT = {
					has_opinion = {
						who = FROM
						value = 0
					}
				}
			}
			
			modifier = {
				factor = 10
				
				is_rival = FROM
			}
			
			modifier = {
				factor = 1.15
				
				army_size = FROM
			}
			
			modifier = {
				factor = 10
				
				is_emperor = yes
			}
			
			modifier = {
				factor = 1.15
				
				is_elector = yes
			}
		}
		A79 = { country_event = { id = gnomish.3 days = 30 random = 10 } }
	}
}

country_event = {
	id = gnomish.2
	title = gnomish.2.t
	desc = gnomish.2.d
	picture = TRADEGOODS_eventPicture
	
	is_triggered_only = yes
	
	trigger = {
		always = yes
	}
	
	# Accept
	option = {
		name = gnomish.2.a
		ai_chance = { factor = 100 }
		create_subject = {
			subject_type = vassal
			subject = FROM
		}
	}
}

country_event = {
	id = gnomish.3
	title = gnomish.3.t
	desc = gnomish.3.d
	picture = TRADEGOODS_eventPicture
	
	is_triggered_only = yes
	
	trigger = {
		always = yes
	}
	
	# Accept
	option = {
		name = gnomish.3.a
		ai_chance = { factor = 100 }
		add_casus_belli = {
			target = FROM
			type = cb_vassalize_mission
			months = 600
		}
	}
}

# Get a truce so Gawed doesn't gank you
country_event = {
	id = gnomish.4
	title = gnomish.4.t
	desc = gnomish.4.d
	picture = TRADEGOODS_eventPicture

	is_triggered_only = yes
	fire_only_once = yes
	
	# Yes
	option = {
		name = gnomish.4.a
		ai_chance = { factor = 100 }
		
		A13 = {
			add_truce_with = A06
		}
		
		add_truce_with = A13
	}
	
	# No
	option = {
		name = gnomish.4.b
		ai_chance = { factor = 0 }
	}
}

country_event = { #Portnamm event, Nimscodd asked for aid
	id = gnomish.6
	title = gnomish.6.t
	desc = gnomish.6.d
	picture = DIPLOMACY_eventPicture
	
	is_triggered_only = yes
	fire_only_once = yes
	
	trigger = {
		always = yes
	}
	
	# Accept
	option = {
		name = gnomish.6.a
		ai_chance = {
			factor = 100 
			
			modifier = {
				factor = 2
				
				has_opinion = {
					who = FROM
					value = 100
				}
			}	
		}

		A06 = { 
			country_event = { 
				id = gnomish.7
				days = 30
			}
			add_opinion = {
				who = A19
				modifier = A06_portnamm_gave_aid
			}
		}
		add_opinion = {
			who = A06
			modifier = A06_portnamm_gave_aid
		}
		add_country_modifier = {
			name = "portnamm_aiding_nimscodd"
			duration = 7300
		}


	}

	# Refuse
	option = {
		name = gnomish.6.b
		ai_chance = {
			factor = 50
			
			modifier = {
				factor = 0
				has_opinion = {
					who = A06
					value = 1
				}
			
			}
			
			modifier = {
				factor = 2
				has_opinion = {
					who = A06
					value = -25
				}
			
			}

			modifier = {
				factor = 5
				has_opinion = {
					who = A06
					value = -50
				}
			
			}
			
			modifier = {
				factor = 5
				
				is_rival = A06
			}
		}

		A06 = {
			country_event = {
				id = gnomish.8
				days = 30
			}
		}
		add_prestige = -10
		add_country_modifier = {
			name = "portnamm_rejected_nimscodd"
			duration = 7300
		}
		A06 = { 
			add_opinion = {
				who = A06
				modifier = A06_portnamm_refused_aid
			}
		}
	}
}

country_event = { # portnamm was nice
	id = gnomish.7
	title = gnomish.7.t
	desc = gnomish.7.d
	picture = BATTLE_eventPicture
	
	is_triggered_only = yes
	fire_only_once = yes
	
	
	# Accept
	option = {
		name = gnomish.7.a
		ai_chance = { 
			factor = 100
		}
		add_country_modifier = {
			name = "nimscodd_aid_from_portnamm"
			duration = 7300
		}
	}
}

country_event = { # portnamm was mean :c
	id = gnomish.8
	title = gnomish.8.t
	desc = gnomish.8.d
	picture = ACCUSATION_eventPicture
	
	is_triggered_only = yes
	fire_only_once = yes
	
	
	# Accept
	option = {
		name = gnomish.8.a
		ai_chance = { 
			factor = 100
		}
		add_country_modifier = {
			name = "nimscodd_no_unity"
			duration = 7300
		}
	}
}